PWD /Users/cpb/code/senrabc.gitlab.com/squeeze_theorem_jupyter_blog_article
INPUT /usr/local/texlive/2019/texmf.cnf
INPUT /usr/local/texlive/2019/texmf-dist/web2c/texmf.cnf
INPUT /usr/local/texlive/2019/texmf-var/web2c/pdftex/pdflatex.fmt
INPUT hello.tex
OUTPUT hello.log
INPUT /usr/local/texlive/2019/texmf-dist/tex/latex/base/article.cls
INPUT /usr/local/texlive/2019/texmf-dist/tex/latex/base/article.cls
INPUT /usr/local/texlive/2019/texmf-dist/tex/latex/base/size10.clo
INPUT /usr/local/texlive/2019/texmf-dist/tex/latex/base/size10.clo
INPUT hello.aux
INPUT hello.aux
OUTPUT hello.aux
OUTPUT hello.pdf
INPUT /usr/local/texlive/2019/texmf-var/fonts/map/pdftex/updmap/pdftex.map
INPUT hello.aux
INPUT /usr/local/texlive/2019/texmf-dist/fonts/type1/public/amsfonts/cm/cmr10.pfb
INPUT /usr/local/texlive/2019/texmf-dist/fonts/type1/public/amsfonts/cm/cmr7.pfb
