PWD /Users/cpb/code/senrabc.gitlab.com/squeeze_theorem_jupyter_blog_article
INPUT /usr/local/texlive/2019/texmf.cnf
INPUT /usr/local/texlive/2019/texmf-dist/web2c/texmf.cnf
INPUT /usr/local/texlive/2019/texmf-var/web2c/pdftex/pdflatex.fmt
INPUT squeeze_theorem_article.tex
OUTPUT squeeze_theorem_article.log
INPUT /usr/local/texlive/2019/texmf-dist/tex/latex/base/article.cls
INPUT /usr/local/texlive/2019/texmf-dist/tex/latex/base/article.cls
INPUT /usr/local/texlive/2019/texmf-dist/tex/latex/base/size10.clo
INPUT /usr/local/texlive/2019/texmf-dist/tex/latex/base/size10.clo
INPUT squeeze_theorem_article.aux
INPUT squeeze_theorem_article.aux
OUTPUT squeeze_theorem_article.aux
INPUT /usr/local/texlive/2019/texmf-dist/fonts/map/fontname/texfonts.map
INPUT /usr/local/texlive/2019/texmf-dist/fonts/tfm/public/cm/cmr17.tfm
INPUT /usr/local/texlive/2019/texmf-dist/fonts/tfm/public/cm/cmr12.tfm
INPUT /usr/local/texlive/2019/texmf-dist/fonts/tfm/public/cm/cmr8.tfm
INPUT /usr/local/texlive/2019/texmf-dist/fonts/tfm/public/cm/cmr6.tfm
INPUT /usr/local/texlive/2019/texmf-dist/fonts/tfm/public/cm/cmmi12.tfm
INPUT /usr/local/texlive/2019/texmf-dist/fonts/tfm/public/cm/cmmi8.tfm
INPUT /usr/local/texlive/2019/texmf-dist/fonts/tfm/public/cm/cmmi6.tfm
INPUT /usr/local/texlive/2019/texmf-dist/fonts/tfm/public/cm/cmsy10.tfm
INPUT /usr/local/texlive/2019/texmf-dist/fonts/tfm/public/cm/cmsy8.tfm
INPUT /usr/local/texlive/2019/texmf-dist/fonts/tfm/public/cm/cmsy6.tfm
INPUT /usr/local/texlive/2019/texmf-dist/fonts/tfm/public/cm/cmr12.tfm
INPUT /usr/local/texlive/2019/texmf-dist/fonts/tfm/public/cm/cmbx12.tfm
INPUT /usr/local/texlive/2019/texmf-dist/fonts/tfm/public/cm/cmti10.tfm
OUTPUT squeeze_theorem_article.pdf
INPUT /usr/local/texlive/2019/texmf-var/fonts/map/pdftex/updmap/pdftex.map
INPUT squeeze_theorem_article.aux
INPUT /usr/local/texlive/2019/texmf-dist/fonts/type1/public/amsfonts/cm/cmbx12.pfb
INPUT /usr/local/texlive/2019/texmf-dist/fonts/type1/public/amsfonts/cm/cmmi10.pfb
INPUT /usr/local/texlive/2019/texmf-dist/fonts/type1/public/amsfonts/cm/cmmi7.pfb
INPUT /usr/local/texlive/2019/texmf-dist/fonts/type1/public/amsfonts/cm/cmr10.pfb
INPUT /usr/local/texlive/2019/texmf-dist/fonts/type1/public/amsfonts/cm/cmr12.pfb
INPUT /usr/local/texlive/2019/texmf-dist/fonts/type1/public/amsfonts/cm/cmr17.pfb
INPUT /usr/local/texlive/2019/texmf-dist/fonts/type1/public/amsfonts/cm/cmti10.pfb
