\relax 
\@writefile{toc}{\contentsline {section}{\numberline {1}Abstract}{1}\protected@file@percent }
\@writefile{toc}{\contentsline {section}{\numberline {2}Introduction}{1}\protected@file@percent }
\@writefile{toc}{\contentsline {section}{\numberline {3}Archimedes Proposition 3: Measurement of a Circle}{1}\protected@file@percent }
\@writefile{toc}{\contentsline {section}{\numberline {4}Conclusion}{2}\protected@file@percent }
\@writefile{toc}{\contentsline {section}{\numberline {5}References}{2}\protected@file@percent }
